…
We highly recommend keeping the [stringr cheatsheet](https://evoldyn.gitlab.io/evomics-2018/ref-sheets/R_strings.pdf) by Lise Vaudor around for when you are writing regular expressions. If you want to learn more about `stringr`, [the package's website](https://stringr.tidyverse.org/) contains a more extensive overview of the package and its functions. You might also check out the [Strings chapter](https://r4ds.had.co.nz/strings.html) of the R for Data Science book.

### Data Frames and `tibble`s

So far in this tutorial, we have exclusively worked with "tibbles". From the [`tibble` website](https://tibble.tidyverse.org/):

> A _tibble_, or `tbl_df`, is a modern reimagining of the `data.frame`, keeping what time has proven to be effective, and throwing out what is not. Tibbles are `data.frames` that are lazy and surly: they do less (i.e. they don’t change variable names or types, and don’t do partial matching) and complain more (e.g. when a variable does not exist). This forces you to confront problems earlier, typically leading to cleaner, more expressive code.

If this sounds like gibberish to you, that is okay. The biggest benefit to `tibble`s over `data.frame`s is the way that they print. If we print `penguins` as a tibble, for example, the output looks like this:

```{r, eval = FALSE}
penguins

# # A tibble: 344 x 8
#    species island  bill_length_mm bill_depth_mm flipper_length_… body_mass_g sex    year
#    <fct>   <fct>            <dbl>         <dbl>            <int>       <int> <fct> <int>
#  1 Adelie  Torger…           39.1          18.7              181        3750 male   2007
#  2 Adelie  Torger…           39.5          17.4              186        3800 fema…  2007
#  3 Adelie  Torger…           40.3          18                195        3250 fema…  2007
#  4 Adelie  Torger…           NA            NA                 NA          NA NA     2007
#  5 Adelie  Torger…           36.7          19.3              193        3450 fema…  2007
#  6 Adelie  Torger…           39.3          20.6              190        3650 male   2007
#  7 Adelie  Torger…           38.9          17.8              181        3625 fema…  2007
#  8 Adelie  Torger…           39.2          19.6              195        4675 male   2007
#  9 Adelie  Torger…           34.1          18.1              193        3475 NA     2007
# 10 Adelie  Torger…           42            20.2              190        4250 NA     2007
# # … with 334 more rows
```
…
